<?xml version="1.0" standalone="no"?>
<!DOCTYPE svg PUBLIC "-//W3C//DTD SVG 20010904//EN"
 "http://www.w3.org/TR/2001/REC-SVG-20010904/DTD/svg10.dtd">
<svg version="1.0" xmlns="http://www.w3.org/2000/svg"
 width="700.000000pt" height="700.000000pt" viewBox="0 0 700.000000 700.000000"
 preserveAspectRatio="xMidYMid meet">
<metadata>
Created by potrace 1.11, written by Peter Selinger 2001-2013
</metadata>
<g transform="translate(0.000000,700.000000) scale(0.100000,-0.100000)"
fill="#4073ff" stroke="none">
<path d="M1840 4916 c-610 -108 -1081 -577 -1185 -1180 -20 -119 -20 -364 1
-487 50 -293 184 -549 403 -770 218 -219 473 -354 771 -405 149 -25 441 -15
575 20 281 73 486 193 693 403 56 57 102 109 102 115 0 6 -42 76 -93 157 -52
80 -113 179 -137 219 -23 39 -46 72 -50 72 -4 0 -24 -29 -45 -64 -118 -202
-309 -349 -550 -422 -83 -26 -104 -28 -255 -28 -190 0 -266 16 -409 84 -248
119 -425 327 -508 597 -25 81 -27 102 -27 263 -1 203 13 269 89 425 245 506
902 694 1347 387 227 -158 388 -365 748 -962 208 -345 311 -500 421 -636 46
-56 86 -103 89 -103 7 -1 230 462 230 477 0 6 -42 75 -93 154 -52 79 -156 247
-232 373 -247 412 -347 557 -513 747 -261 300 -511 465 -824 544 -89 23 -129
27 -288 30 -124 2 -210 -1 -260 -10z"/>
<path d="M4782 4890 c-327 -34 -673 -218 -892 -474 l-68 -79 67 -101 c38 -56
101 -156 142 -223 41 -68 77 -123 80 -123 3 0 13 17 23 38 56 117 221 288 350
361 283 161 611 170 901 26 243 -121 410 -322 491 -590 25 -83 28 -104 28
-260 0 -144 -3 -182 -22 -248 -83 -298 -301 -542 -581 -647 l-96 -36 -122
-244 c-67 -135 -122 -251 -122 -258 -1 -11 18 -12 92 -7 355 26 656 164 913
420 174 174 280 342 353 562 49 147 62 227 68 410 7 207 -9 318 -68 498 -72
217 -184 399 -349 564 -198 199 -454 339 -726 395 -88 19 -351 28 -462 16z"/>
<path d="M4331 2844 c-233 -487 -422 -887 -420 -888 2 -2 92 43 199 100 107
56 198 99 201 96 3 -4 25 -112 50 -239 24 -128 46 -229 50 -225 4 4 199 409
435 900 255 533 424 896 418 902 -11 11 -491 240 -502 240 -4 -1 -198 -399
-431 -886z"/>
</g>
</svg>
